…
```
## 
##   Africa Americas     Asia   Europe  Oceania 
##      624      300      396      360       24
```


```r
gapminder
```

```
## # A tibble: 1,704 × 6
##    country     continent  year lifeExp      pop gdpPercap
##    <fct>       <fct>     <int>   <dbl>    <int>     <dbl>
##  1 Afghanistan Asia       1952    28.8  8425333      779.
##  2 Afghanistan Asia       1957    30.3  9240934      821.
##  3 Afghanistan Asia       1962    32.0 10267083      853.
##  4 Afghanistan Asia       1967    34.0 11537966      836.
##  5 Afghanistan Asia       1972    36.1 13079460      740.
##  6 Afghanistan Asia       1977    38.4 14880372      786.
##  7 Afghanistan Asia       1982    39.9 12881816      978.
##  8 Afghanistan Asia       1987    40.8 13867957      852.
##  9 Afghanistan Asia       1992    41.7 16317921      649.
## 10 Afghanistan Asia       1997    41.8 22227415      635.
## # … with 1,694 more rows
```
…
```r
select(gapminder, year, lifeExp)
```

```
## # A tibble: 1,704 × 2
##     year lifeExp
##    <int>   <dbl>
##  1  1952    28.8
##  2  1957    30.3
##  3  1962    32.0
##  4  1967    34.0
##  5  1972    36.1
##  6  1977    38.4
##  7  1982    39.9
##  8  1987    40.8
##  9  1992    41.7
## 10  1997    41.8
## # … with 1,694 more rows
```
…
```r
(my_gap <- gapminder)
```

```
## # A tibble: 1,704 × 6
##    country     continent  year lifeExp      pop gdpPercap
##    <fct>       <fct>     <int>   <dbl>    <int>     <dbl>
##  1 Afghanistan Asia       1952    28.8  8425333      779.
##  2 Afghanistan Asia       1957    30.3  9240934      821.
##  3 Afghanistan Asia       1962    32.0 10267083      853.
##  4 Afghanistan Asia       1967    34.0 11537966      836.
##  5 Afghanistan Asia       1972    36.1 13079460      740.
##  6 Afghanistan Asia       1977    38.4 14880372      786.
##  7 Afghanistan Asia       1982    39.9 12881816      978.
##  8 Afghanistan Asia       1987    40.8 13867957      852.
##  9 Afghanistan Asia       1992    41.7 16317921      649.
## 10 Afghanistan Asia       1997    41.8 22227415      635.
## # … with 1,694 more rows
```
…
```r
my_precious <- my_gap %>% filter(country=="Canada")
```




```r
my_gap %>% mutate(gdp = pop * gdpPercap)
```

```
## # A tibble: 1,704 × 7
##    country     continent  year lifeExp      pop gdpPercap          gdp
##    <fct>       <fct>     <int>   <dbl>    <int>     <dbl>        <dbl>
##  1 Afghanistan Asia       1952    28.8  8425333      779.  6567086330.
##  2 Afghanistan Asia       1957    30.3  9240934      821.  7585448670.
##  3 Afghanistan Asia       1962    32.0 10267083      853.  8758855797.
##  4 Afghanistan Asia       1967    34.0 11537966      836.  9648014150.
##  5 Afghanistan Asia       1972    36.1 13079460      740.  9678553274.
##  6 Afghanistan Asia       1977    38.4 14880372      786. 11697659231.
##  7 Afghanistan Asia       1982    39.9 12881816      978. 12598563401.
##  8 Afghanistan Asia       1987    40.8 13867957      852. 11820990309.
##  9 Afghanistan Asia       1992    41.7 16317921      649. 10595901589.
## 10 Afghanistan Asia       1997    41.8 22227415      635. 14121995875.
## # … with 1,694 more rows
```
…
```
##     Min.  1st Qu.   Median     Mean  3rd Qu.     Max. 
## 0.007236 0.061648 0.171521 0.326659 0.446564 9.534690
```


```r
my_gap %>% 
  arrange(year,country)
```

```
## # A tibble: 1,704 × 7
##    country     continent  year lifeExp      pop gdpPercap gdpPercapRel
##    <fct>       <fct>     <int>   <dbl>    <int>     <dbl>        <dbl>
##  1 Afghanistan Asia       1952    28.8  8425333      779.       0.0686
##  2 Albania     Europe     1952    55.2  1282697     1601.       0.141 
##  3 Algeria     Africa     1952    43.1  9279525     2449.       0.215 
##  4 Angola      Africa     1952    30.0  4232095     3521.       0.310 
##  5 Argentina   Americas   1952    62.5 17876956     5911.       0.520 
##  6 Australia   Oceania    1952    69.1  8691212    10040.       0.883 
##  7 Austria     Europe     1952    66.8  6927772     6137.       0.540 
##  8 Bahrain     Asia       1952    50.9   120447     9867.       0.868 
##  9 Bangladesh  Asia       1952    37.5 46886859      684.       0.0602
## 10 Belgium     Europe     1952    68    8730405     8343.       0.734 
## # … with 1,694 more rows
```

```r
my_gap %>% 
  filter(year==2007) %>% 
  arrange(desc(lifeExp))
```

```
## # A tibble: 142 × 7
##    country          continent  year lifeExp       pop gdpPercap gdpPercapRel
##    <fct>            <fct>     <int>   <dbl>     <int>     <dbl>        <dbl>
##  1 Japan            Asia       2007    82.6 127467972    31656.        0.872
##  2 Hong Kong, China Asia       2007    82.2   6980412    39725.        1.09 
##  3 Iceland          Europe     2007    81.8    301931    36181.        0.996
##  4 Switzerland      Europe     2007    81.7   7554661    37506.        1.03 
##  5 Australia        Oceania    2007    81.2  20434176    34435.        0.948
##  6 Spain            Europe     2007    80.9  40448191    28821.        0.794
##  7 Sweden           Europe     2007    80.9   9031088    33860.        0.932
##  8 Israel           Asia       2007    80.7   6426679    25523.        0.703
##  9 France           Europe     2007    80.7  61083916    30470.        0.839
## 10 Canada           Americas   2007    80.7  33390141    36319.        1    
## # … with 132 more rows
```
…
